[
    {
      "model": "journal_de_bord.apprenants",
      "pk": 1,
      "fields": {
        "nom": "Orange",
        "prenom" : "Jude",
        "email" : "paquito@gmail.com"
      }
    },
    {
        "model": "journal_de_bord.apprenants",
        "pk": 2,
        "fields": {
            "nom": "Fonfek",
            "prenom" : "Sophie",
            "email" : "justin_bridou@caramail.com"
        }
      },
      {
        "model": "journal_de_bord.apprenants",
        "pk": 3,
        "fields": {
            "nom": "Zarella",
            "prenom" : "Maude",
            "email" : "buffala@otmail.fr"
        }
      },
      {
        "model": "journal_de_bord.apprenants",
        "pk": 4,
        "fields": {
            "nom": "Gaulet",
            "prenom" : "Jerry",
            "email" : "lolilol@mail.com"
        }
      },
      {
        "model": "journal_de_bord.apprenants",
        "pk": 5,
        "fields": {
            "nom": "Estézie",
            "prenom" : "Anne",
            "email" : "rondoudou@wanadoo.fr"
        }
      },
      {
        "model": "journal_de_bord.apprenants",
        "pk": 6,
        "fields": {
            "nom": "Léfleur",
            "prenom" : "Ella-Rose",
            "email" : "blague@jardiland.com"
        }
      }
  ]